Date/time of mission,Number of mission,Rocket name,Total cargo mass [kg]
2008-09-29 01:15:00,4,falcon1,165
2009-07-13 05:35:00,5,falcon1,200
2012-05-02 09:44:00,8,falcon9,525
2012-10-08 02:35:00,9,falcon9,800
2013-03-01 20:10:00,10,falcon9,677
2013-09-29 18:00:00,11,falcon9,500
2013-12-03 23:41:00,12,falcon9,3170
2014-01-06 19:06:00,13,falcon9,3325
2014-04-18 21:25:00,14,falcon9,2296
2014-07-14 17:15:00,15,falcon9,1316
2014-08-05 10:00:00,16,falcon9,4535
2014-09-07 07:00:00,17,falcon9,4428
2014-09-21 07:52:00,18,falcon9,2216
2015-01-10 10:47:00,19,falcon9,2395
2015-02-12 00:03:00,20,falcon9,570
2015-03-02 04:50:00,21,falcon9,4159
2015-04-14 22:10:00,22,falcon9,1898
2015-04-28 01:03:00,23,falcon9,4707
2015-12-22 02:29:00,25,falcon9,2034
2016-01-17 16:42:00,26,falcon9,553
2016-03-05 00:35:00,27,falcon9,5271
2016-04-08 22:43:00,28,falcon9,3136
2016-05-06 07:21:00,29,falcon9,4696
2016-05-27 23:39:00,30,falcon9,3100
2016-06-15 16:29:00,31,falcon9,3600
2016-07-18 06:45:00,32,falcon9,2257
2016-08-14 07:26:00,33,falcon9,4600
2017-01-14 18:54:00,35,falcon9,9600
2017-02-19 15:39:00,36,falcon9,2490
2017-03-16 07:00:00,37,falcon9,5600
2017-03-31 00:27:00,38,falcon9,5300
2017-05-16 01:21:00,40,falcon9,6070
2017-06-03 23:07:00,41,falcon9,2708
2017-06-23 21:10:00,42,falcon9,3669
2017-06-25 15:25:00,43,falcon9,9600
2017-07-06 01:35:00,44,falcon9,6761
2017-08-14 18:31:00,45,falcon9,2910
2017-08-24 20:50:00,46,falcon9,475
2017-09-07 15:50:00,47,falcon9,4990
2017-10-09 14:37:00,48,falcon9,9600
2017-10-12 00:53:00,49,falcon9,5200
2017-10-30 20:34:00,50,falcon9,3700
2017-12-15 16:36:00,51,falcon9,2205
2017-12-23 02:27:23,52,falcon9,9600
2018-01-31 22:25:00,54,falcon9,4230
2018-02-06 21:45:00,55,falconheavy,1350
2018-02-22 15:17:00,56,falcon9,2150
2018-03-06 06:33:00,57,falcon9,6092
2018-03-30 16:13:51,58,falcon9,9600
2018-04-02 22:30:41,59,falcon9,2760
2018-04-19 00:51:00,60,falcon9,350
2018-05-11 22:14:00,61,falcon9,3750
2018-05-22 21:47:58,62,falcon9,5460
